{
  "location": {
      "name": "Belfast",
      "region": "Belfast",
      "country": "United Kingdom",
      "lat": 54.58,
      "lon": -5.93,
      "tz_id": "Europe/London",
      "localtime_epoch": 1551900217,
      "localtime": "2019-03-06 19:23"
  },
  "current": {
      "last_updated_epoch": 1551899709,
      "last_updated": "2019-03-06 19:15",
      "temp_c": 6,
      "temp_f": 42.8,
      "is_day": 0,
      "condition": {
          "text": "Overcast",
          "icon": "//cdn.apixu.com/weather/64x64/night/122.png",
          "code": 1009
      },
      "wind_mph": 15,
      "wind_kph": 24.1,
      "wind_degree": 250,
      "wind_dir": "WSW",
      "pressure_mb": 977,
      "pressure_in": 29.3,
      "precip_mm": 1,
      "precip_in": 0.04,
      "humidity": 81,
      "cloud": 100,
      "feelslike_c": 1.9,
      "feelslike_f": 35.4,
      "vis_km": 10,
      "vis_miles": 6,
      "uv": 0
  },
  "forecast": {
      "forecastday": [
          {
              "date": "2019-03-06",
              "date_epoch": 1551830400,
              "day": {
                  "maxtemp_c": 10.4,
                  "maxtemp_f": 50.7,
                  "mintemp_c": 4.8,
                  "mintemp_f": 40.6,
                  "avgtemp_c": 7.1,
                  "avgtemp_f": 44.8,
                  "maxwind_mph": 15.7,
                  "maxwind_kph": 25.2,
                  "totalprecip_mm": 9.5,
                  "totalprecip_in": 0.37,
                  "avgvis_km": 10.9,
                  "avgvis_miles": 6,
                  "avghumidity": 91,
                  "condition": {
                      "text": "Light rain shower",
                      "icon": "//cdn.apixu.com/weather/64x64/day/353.png",
                      "code": 1240
                  },
                  "uv": 0.9
              },
              "astro": {
                  "sunrise": "07:02 AM",
                  "sunset": "06:09 PM",
                  "moonrise": "07:29 AM",
                  "moonset": "05:52 PM"
              }
          },
          {
              "date": "2019-03-07",
              "date_epoch": 1551916800,
              "day": {
                  "maxtemp_c": 7.8,
                  "maxtemp_f": 46,
                  "mintemp_c": 4.3,
                  "mintemp_f": 39.7,
                  "avgtemp_c": 6.5,
                  "avgtemp_f": 43.7,
                  "maxwind_mph": 26.2,
                  "maxwind_kph": 42.1,
                  "totalprecip_mm": 8.4,
                  "totalprecip_in": 0.33,
                  "avgvis_km": 14.8,
                  "avgvis_miles": 9,
                  "avghumidity": 83,
                  "condition": {
                      "text": "Light drizzle",
                      "icon": "//cdn.apixu.com/weather/64x64/day/266.png",
                      "code": 1153
                  },
                  "uv": 1.3
              },
              "astro": {
                  "sunrise": "06:59 AM",
                  "sunset": "06:11 PM",
                  "moonrise": "07:46 AM",
                  "moonset": "07:01 PM"
              }
          },
          {
              "date": "2019-03-08",
              "date_epoch": 1552003200,
              "day": {
                  "maxtemp_c": 5.8,
                  "maxtemp_f": 42.4,
                  "mintemp_c": -1.2,
                  "mintemp_f": 29.8,
                  "avgtemp_c": 2.7,
                  "avgtemp_f": 36.9,
                  "maxwind_mph": 24.8,
                  "maxwind_kph": 40,
                  "totalprecip_mm": 10.6,
                  "totalprecip_in": 0.42,
                  "avgvis_km": 16.2,
                  "avgvis_miles": 10,
                  "avghumidity": 87,
                  "condition": {
                      "text": "Moderate or heavy rain shower",
                      "icon": "//cdn.apixu.com/weather/64x64/day/356.png",
                      "code": 1243
                  },
                  "uv": 1.2
              },
              "astro": {
                  "sunrise": "06:57 AM",
                  "sunset": "06:13 PM",
                  "moonrise": "08:02 AM",
                  "moonset": "08:11 PM"
              }
          },
          {
              "date": "2019-03-09",
              "date_epoch": 1552089600,
              "day": {
                  "maxtemp_c": 6.4,
                  "maxtemp_f": 43.5,
                  "mintemp_c": 2.1,
                  "mintemp_f": 35.8,
                  "avgtemp_c": 3.9,
                  "avgtemp_f": 39,
                  "maxwind_mph": 28.2,
                  "maxwind_kph": 45.4,
                  "totalprecip_mm": 0.8,
                  "totalprecip_in": 0.03,
                  "avgvis_km": 15.8,
                  "avgvis_miles": 9,
                  "avghumidity": 72,
                  "condition": {
                      "text": "Patchy rain possible",
                      "icon": "//cdn.apixu.com/weather/64x64/day/176.png",
                      "code": 1063
                  },
                  "uv": 1.4
              },
              "astro": {
                  "sunrise": "06:54 AM",
                  "sunset": "06:15 PM",
                  "moonrise": "08:18 AM",
                  "moonset": "09:21 PM"
              }
          },
          {
              "date": "2019-03-10",
              "date_epoch": 1552176000,
              "day": {
                  "maxtemp_c": 6.3,
                  "maxtemp_f": 43.3,
                  "mintemp_c": 1.7,
                  "mintemp_f": 35.1,
                  "avgtemp_c": 3.9,
                  "avgtemp_f": 39.1,
                  "maxwind_mph": 18.3,
                  "maxwind_kph": 29.5,
                  "totalprecip_mm": 9.6,
                  "totalprecip_in": 0.38,
                  "avgvis_km": 14.2,
                  "avgvis_miles": 8,
                  "avghumidity": 80,
                  "condition": {
                      "text": "Light drizzle",
                      "icon": "//cdn.apixu.com/weather/64x64/day/266.png",
                      "code": 1153
                  },
                  "uv": 1.4
              },
              "astro": {
                  "sunrise": "06:52 AM",
                  "sunset": "06:17 PM",
                  "moonrise": "08:35 AM",
                  "moonset": "10:33 PM"
              }
          }
      ]
  }
}